{
  "bare": {
    "flora: {

    },

    "fauna": {

    },
  },

  "deciduous": {
    "flora" : {
      "oak": 70,
      "elm": 60,
      "grass": 40
    },

    "fauna" : {
      "rabbit": 40,
      "wolf": 10,
      "bear": 1,
      "mouse": 30,
      "owl": 3
    },
  },

  "desert": {
    "flora: {

    },

    "fauna": {

    },
  },

  "grassland": {
    "flora: {

    },

    "fauna": {

    },
  },

  "marsh": {
    "flora: {

    },

    "fauna": {

    },
  },

  "savanna": {
    "flora: {

    },

    "fauna": {

    },
  },

  "scorched": {
    "flora: {

    },

    "fauna": {

    },
  },

  "shrub": {
    "flora: {

    },

    "fauna": {

    },
  },

  "snow": {
    "flora: {

    },

    "fauna": {

    },
  },

  "taiga": {
    "flora: {

    },

    "fauna": {

    },
  },

  "temperate": {
    "flora: {

    },

    "fauna": {

    },
  },

  "tropical": {
    "flora: {
      "bamboo": 30
    },

    "fauna": {

    },
  },

  "tundra": {
    "flora: {

    },

    "fauna": {

    },
  },

  "water": {
    "flora: {

    },

    "fauna": {

    },
  }
}
